Mini Project 01 – STA 9750
…
Exploratory Data Analysis

Code

rutgers_summary <- rutgers_clean |>
  dplyr::filter(level %in% c("all undergrad", "first year undergrad")) |>
  dplyr::select(year, level, total_students, diversity_count, diversity_share) |>
  dplyr::arrange(level, year)

rutgers_summary

# A tibble: 30 × 5
    year level         total_students diversity_count diversity_share
   <int> <chr>                  <dbl>           <dbl>           <dbl>
 1  2010 all undergrad          30351            7804           0.257
 2  2011 all undergrad          31268            8359           0.267
 3  2012 all undergrad          31593            8862           0.281
 4  2013 all undergrad          33901           10052           0.297
 5  2014 all undergrad          34544           10781           0.312
 6  2015 all undergrad          35484           11688           0.329
 7  2016 all undergrad          36168           12413           0.343
 8  2017 all undergrad          35641           12358           0.347
 9  2018 all undergrad          36039           12620           0.350
10  2019 all undergrad          36158           12739           0.352
# ℹ 20 more rows
…
